ReMASTER Documentation
…
4.4. Plotting simulated trajectories

In order to actually visualise the simulation output, we can make use of the script
trajTools.R which one can find in the scripts/ directory of the ReMASTER repository
to load the trajectories into a data frame:

source("<PATH>/ReMASTER/scripts/trajTools.R")
traj <- loadTrajectories("output.traj")

(Here "<PATH>" is the path to the ReMASTER repository or package directory.)

The resulting data frame has the following layout:

> traj
# A tibble: 8,039 × 5
        t population index value Sample
    <dbl> <chr>      <dbl> <dbl>  <int>
 1 0      X              0     1      0
 2 1.05   X              0     0      0
 3 0      X              0     1      1
 4 0.0269 X              0     2      1
 5 0.0484 X              0     3      1
 6 0.213  X              0     2      1
 7 0.990  X              0     1      1
 8 1.73   X              0     2      1
 9 1.80   X              0     3      1
10 1.95   X              0     4      1
# … with 8,029 more rows
…
